[
  {
    "id": 1,
    "contractNumber": "fc5148",
    "startDate": "2017-11-18T00:00:00",
    "endDate": "2017-11-29T00:00:00",
    "price": 152500,
    "remarks": "Try to survive boy",
    "contractType": {
      "id": 1,
      "name": "type 1"
    },
    "customer": {
      "fk_customer_id": "1",
      "customerName": "Mohamed",
      "customerMobile": "012587455",
      "area": "Hawali"
    },
    "fk_contract_id": "1",
    "fk_location_id": "1",
    "quotationRefNo": "Enmaa15789510"
  },
  {
    "id": 2,
    "contractNumber": "fc5148",
    "startDate": "2017-11-18T00:00:00",
    "endDate": "2017-11-29T00:00:00",
    "price": 152500,
    "remarks": "Try to survive boy",
    "contractType": {
      "id": 1,
      "name": "type 1"
    },
    "customer": {
      "fk_customer_id": "1",
      "customerName": "Mohamed",
      "customerMobile": "012587455",
      "area": "Hawali"
    },
    "fk_contract_id": "1",
    "fk_location_id": "1",
    "quotationRefNo": "Enmaa15789510"
  }
]
